Proposal_Clustering – Colombian Fintech
…
[1] "customer_id" "date"        "amount"      "type"       

As the missing summary below shows,the main deficiencies are centered on: ‘Complaint topics’,‘credit utilization ratio’,’feature requests, while transaction level variables are almost complete.

missing_summary <- customer %>%
  summarise(across(everything(), ~mean(is.na(.)))) %>%
  pivot_longer(cols = everything(),
               names_to = "variable",
               values_to = "missing_rate") %>%
  arrange(desc(missing_rate))

missing_summary %>% print(n = 20)

# A tibble: 54 × 2
   variable                 missing_rate
   <chr>                           <dbl>
 1 complaint_topics                0.500
 2 credit_utilization_ratio        0.375
 3 feature_requests                0.331
 4 customer_id                     0    
 5 age                             0    
 6 gender                          0    
 7 location                        0    
 8 income_bracket                  0    
 9 occupation                      0    
10 education_level                 0    
11 marital_status                  0    
12 household_size                  0    
13 acquisition_channel             0    
14 customer_segment                0    
15 savings_account                 0    
16 credit_card                     0    
17 personal_loan                   0    
18 investment_account              0    
19 insurance_product               0    
20 active_products                 0    
# ℹ 34 more rows
…
